atendimento;"Chácara das Nascentes";"Vivian cristine saldanha ayres";VIVI_AYRES@YAHOO.COM.BR;(51)9717-2020;"bOA TARDE,
gOSTARIA DE OBTER INFORMAÇÕES SOBRE AS CASAS DESSE PROJETO: VALORES, TAXAS CONDOMINAIS, FORMAS DE PAGAMENTO E FINANCIAMENTO, ETC. 
aGUARDO RETORNO
ATT.,
VIVIAN AYRES.";"stodolni@ig.com.br, vendas@nexvendas.com.br, ";"2013-11-04 17:10:36"
atendimento;Joy;"kaleb pereira lopes";kaleb.lopes@gmail.com;93359007;"Boa tarde
Gostaria de receber mais informações.
Metragem do Ap de 2 Dorm?
Condominio:?

valor do ap de dois dorm?
Quando fica pronto?";"daniellalaitano@gmail.com, central@lopesonline.com.br, lcimenti@lopes.com.br, ";"2013-11-04 14:46:27"
